
namespace = patrons_fey_events
#Coded by RubedoFox

# # Baku Boons
country_event = {
	id =  patrons_fey_events.1
	title =  patrons_fey_events.1.t
	desc =  patrons_fey_events.1.d
	picture = FAMINE_eventPicture
	
	is_triggered_only = yes
	
	trigger = {
		always = yes
	}

	option = {	#make your people have some nice dreams
		name = patrons_fey_events.1.a
		ai_chance = { 
			factor = 33 
		}
		trigger = {
			NOT = { has_ruler_modifier = patron_good_dreams }
		}
		add_ruler_modifier = { 
			name = patron_good_dreams
			duration = 3650
		}
		change_patron_approval = { remove = 1 }
		if = {
			limit = { 
				ai = yes #makes ai back out of this menu completely to prevent spam
			}
			add_ruler_modifier = { 
				name = ai_patron_limiter
				duration = 1825 #prevents them from using boons or tributes for 5 years
			}
			close_single_menu = yes
		}
		else = {
			country_event = { id = patrons_events.1 }
		}
	}
	
	option = {	#Boon 2: remove nightmares
		name = patrons_fey_events.1.b
		ai_chance = { 
			factor = 33 
		}
		trigger = {
			NOT = { has_ruler_modifier = patron_nightmares }
		}
		add_ruler_modifier = { 
			name = patron_nightmares
			duration = 3650
		}
		change_patron_approval = { remove = 1 }
		if = {
			limit = { 
				ai = yes #makes ai back out of this menu completely to prevent spam
			}
			add_ruler_modifier = { 
				name = ai_patron_limiter
				duration = 1825 #prevents them from using boons or tributes for 5 years
			}
			close_single_menu = yes
		}
		else = {
			country_event = { id = patrons_events.1 }
		}
	}

	option = {	#Close Menu
		name = patrons_fey_events.back
		ai_chance = { 
			factor = 0
		}
		country_event = { id = patrons_events.1 }
	}
}

# # Baku Tribute
country_event = {
	id =  patrons_fey_events.2
	title =  patrons_fey_events.2.t
	desc =  patrons_fey_events.2.d
	picture = FAMINE_eventPicture
	
	is_triggered_only = yes
	
	trigger = {
		always = yes
	}

	option = {	#A Tribute of Sacrifice
		name = patrons_fey_events.2.a
		ai_chance = { 
			factor = 33 
		}
		add_adm_power = -100
		change_patron_approval = { add = 1 }
		if = {
			limit = { 
				ai = yes #makes ai back out of this menu completely to prevent spam
			}
			add_ruler_modifier = { 
				name = ai_patron_limiter
				duration = 1825 #prevents them from using boons or tributes for 5 years
			}
			close_single_menu = yes
		}
		else = {
			country_event = { id = patrons_events.1 }
		}
	}
	
	option = {	#A Tribute of Mind
		name = patrons_fey_events.2.b
		ai_chance = { 
			factor = 33 
		}
		trigger = {
			NOT = { has_ruler_modifier = patron_sliver_mind_tribute }
		}
		add_ruler_modifier = { 
			name = patron_sliver_mind_tribute
			duration = 3650
		}
		change_patron_approval = { add = 1 }
		if = {
			limit = { 
				ai = yes #makes ai back out of this menu completely to prevent spam
			}
			add_ruler_modifier = { 
				name = ai_patron_limiter
				duration = 1825 #prevents them from using boons or tributes for 5 years
			}
			close_single_menu = yes
		}
		else = {
			country_event = { id = patrons_events.1 }
		}
	}

	option = {	#Close Menu
		name = patrons_fey_events.back
		ai_chance = { 
			factor = 0 
		}
		country_event = { id = patrons_events.1 }
	}
}