namespace = goblin_tolerance_events

# Event organizer for the goblin tolerance events - should be a huge improvement to performance - having 1 overall check for having the minority instead of one for EACH new event that gets added
country_event = {
	id = goblin_tolerance_events.0
	title = race_setup_events.1.d
	desc = race_setup_events.1.d
	picture = BORDER_TENSION_eventPicture

	is_triggered_only = yes
	hidden = yes

	trigger = {
		NOT = { culture_group = goblin }
		any_owned_province = {
			has_goblin_minority_trigger = yes
		}
	}
	
	mean_time_to_happen = {
		days = 1
		modifier = {
			factor = 10
			has_country_modifier = racial_focus_goblin
		}
	}

	option = {
		#random_list = {
			# # 
			# 1 = {
				# trigger = {
					
				# }
				# modifier = {
					
				# }
				# country_event = {
					# #id = 
				# }
			# }
		
		# }
		random_list = {
			#goblin minister 
			1 = {
				modifier = {
					factor = 1.5
					medium_tolerance_goblin_race_trigger = yes
				}
				modifier = {
					factor = 2
					high_tolerance_goblin_race_trigger = yes
				}
				country_event = {
					id = goblin_tolerance_events.1
				}
			}
			#goblin blackmail estate
			1 = {
				trigger = {
					has_estate = estate_burghers
				}
				modifier = {
					factor = 2
					high_tolerance_goblin_race_trigger = yes
				}
				modifier = {
					factor = 2
					corruption = 2
				}
				country_event = {
					id = goblin_tolerance_events.3
				}
			}
			#goblin artificer patent estate
			1 = {
				trigger = {
					OR = {
						medium_tolerance_goblin_race_trigger = yes
						high_tolerance_goblin_race_trigger = yes
					}
					has_estate = estate_artificers
				}
				country_event = {
					id = goblin_tolerance_events.4
				}
			}
			#goblins in government 
			1 = {
				trigger = {
					high_tolerance_goblin_race_trigger = yes
				}
				country_event = {
					id = goblin_tolerance_events.5
				}
			}
			# #goblin cartel dominates 
			# 1 = {
				# trigger = {
					# has_estate = estate_artificers
				# }
				# country_event = {
					# id = goblin_tolerance_events.6
				# }
			# }
			# #Explosion in province
			# 1 = {
				# country_event = {
					# id = goblin_tolerance_events.7
				# }
			# }
			# #Goblin Gangs
			# 1 = {
				# modifier = {
					# factor = 2
					# low_tolerance_goblin_race_trigger = yes
				# }
				# country_event = {
					# id = goblin_tolerance_events.7
				# }
			# }
		}
	}
}

#goblin minister
country_event = {
	id = goblin_tolerance_events.1
	title = goblin_tolerance_events.1.t
	desc = goblin_tolerance_events.1.d
	picture = ADVISOR_eventPicture
	
	is_triggered_only = yes
		
	#recruit
	option = {	
		name = goblin_tolerance_events.1.a
		ai_chance = {
			factor = 50
			modifier = {
				factor = 0.1
				wants_to_increase_tolerance_goblin = yes
			}
		}
		small_increase_of_goblin_tolerance_effect = yes
		if = {
			limit = { has_country_flag = goblin_advisor_culture_set }
			if = {
				limit = { monthly_income = 50 }
				random_list = {
					1 = {
						define_advisor = {
							type = fortification_expert
							culture = event_target:goblin_advisor_culture_province
							religion = event_target:goblin_advisor_culture_province
							skill = 3
							
							discount = yes
						}
					}
					1 = {
						define_advisor = {
							type = trader
							culture = event_target:goblin_advisor_culture_province
							religion = event_target:goblin_advisor_culture_province
							skill = 3
							
							discount = yes
						}
					}
				}
			}
			else_if = {
				limit = { monthly_income = 25 }
				random_list = {
					1 = {
						define_advisor = {
							type = fortification_expert
							culture = event_target:goblin_advisor_culture_province
							religion = event_target:goblin_advisor_culture_province
							skill = 2
							
							discount = yes
						}
					}
					1 = {
						define_advisor = {
							type = trader
							culture = event_target:goblin_advisor_culture_province
							religion = event_target:goblin_advisor_culture_province
							skill = 2
							
							discount = yes
						}
					}
				}
			}
			else = {
				random_list = {
					1 = {
						define_advisor = {
							type = fortification_expert
							culture = event_target:goblin_advisor_culture_province
							religion = event_target:goblin_advisor_culture_province
							skill = 1
							
							discount = yes
						}
					}
					1 = {
						define_advisor = {
							type = trader
							culture = event_target:goblin_advisor_culture_province
							religion = event_target:goblin_advisor_culture_province
							skill = 1
							
							discount = yes
						}
					}
				}
			}
		}
		else_if = {
			limit = { 
				capital_scope = {
					superregion = deepwoods_superregion
				} 
			}
			if = {
				limit = { monthly_income = 50 }
				random_list = {
					1 = {
						define_advisor = {
							type = fortification_expert
							culture = forest_goblin
							skill = 3
							
							discount = yes
						}
					}
					1 = {
						define_advisor = {
							type = trader
							culture = forest_goblin
							skill = 3
							
							discount = yes
						}
					}
				}
			}
			else_if = {
				limit = { monthly_income = 25 }
				random_list = {
					1 = {
						define_advisor = {
							type = fortification_expert
							culture = forest_goblin
							skill = 2
							
							discount = yes
						}
					}
					1 = {
						define_advisor = {
							type = trader
							culture = forest_goblin
							skill = 2
							discount = yes
						}
					}
				}
			}
			else = {
				random_list = {
					1 = {
						define_advisor = {
							type = fortification_expert
							culture = forest_goblin
							skill = 1
							
							discount = yes
						}
					}
					1 = {
						define_advisor = {
							type = trader
							culture = forest_goblin
							skill = 1
							discount = yes
						}
					}
				}
			}
		}
		else_if = {
			limit = { 
				capital_scope = {
					superregion = escann_superregion
				} 
			}
			if = {
				limit = { monthly_income = 50 }
				random_list = {
					1 = {
						define_advisor = {
							type = fortification_expert
							culture = common_goblin
							skill = 3
							
							discount = yes
						}
					}
					1 = {
						define_advisor = {
							type = trader
							culture = common_goblin
							skill = 3
							
							discount = yes
						}
					}
				}
			}
			else_if = {
				limit = { monthly_income = 25 }
				random_list = {
					1 = {
						define_advisor = {
							type = fortification_expert
							culture = common_goblin
							skill = 2
							
							discount = yes
						}
					}
					1 = {
						define_advisor = {
							type = trader
							culture = common_goblin
							skill = 2
							
							discount = yes
						}
					}
				}
			}
			else = {
				random_list = {
					1 = {
						define_advisor = {
							type = fortification_expert
							culture = common_goblin
							skill = 1
							
							discount = yes
						}
					}
					1 = {
						define_advisor = {
							type = trader
							culture = common_goblin
							skill = 1
							
							discount = yes
						}
					}
				}
			}
		}
		else_if = {
			limit = { 
				capital_scope = {
					OR = {
						superregion = west_serpentspine_superregion
						superregion = east_serpentspine_superregion
					}
				} 
			}
			if = {
				limit = { monthly_income = 50 }
				random_list = {
					1 = {
						define_advisor = {
							type = fortification_expert
							culture = cave_goblin
							skill = 3
							
							discount = yes
						}
					}
					1 = {
						define_advisor = {
							type = trader
							culture = cave_goblin
							skill = 3
							
							discount = yes
						}
					}
				}
			}
			else_if = {
				limit = { monthly_income = 25 }
				random_list = {
					1 = {
						define_advisor = {
							type = fortification_expert
							culture = cave_goblin
							skill = 2
							
							discount = yes
						}
					}
					1 = {
						define_advisor = {
							type = trader
							culture = cave_goblin
							skill = 2
							
							discount = yes
						}
					}
				}
			}
			else = {
				random_list = {
					1 = {
						define_advisor = {
							type = fortification_expert
							culture = cave_goblin
							skill = 1
							
							discount = yes
						}
					}
					1 = {
						define_advisor = {
							type = trader
							culture = cave_goblin
							skill = 1
							
							discount = yes
						}
					}
				}
			}
		}
		else_if = {
			limit = { 
				capital_scope = {
					superregion = bulwar_superregion
				} 
			}
			if = {
				limit = { monthly_income = 50 }
				random_list = {
					1 = {
						define_advisor = {
							type = fortification_expert
							culture = exodus_goblin
							skill = 3
							
							discount = yes
						}
					}
					1 = {
						define_advisor = {
							type = trader
							culture = exodus_goblin
							skill = 3
							
							discount = yes
						}
					}
				}
			}
			else_if = {
				limit = { monthly_income = 25 }
				random_list = {
					1 = {
						define_advisor = {
							type = fortification_expert
							culture = exodus_goblin
							skill = 2
							
							discount = yes
						}
					}
					1 = {
						define_advisor = {
							type = trader
							culture = exodus_goblin
							skill = 2
							
							discount = yes
						}
					}
				}
			}
			else = {
				random_list = {
					1 = {
						define_advisor = {
							type = fortification_expert
							culture = exodus_goblin
							skill = 1
							
							discount = yes
						}
					}
					1 = {
						define_advisor = {
							type = trader
							culture = exodus_goblin
							skill = 1
							
							discount = yes
						}
					}
				}
			}
		}
		else = {
			if = {
				limit = { monthly_income = 50 }
				random_list = {
					1 = {
						define_advisor = {
							type = fortification_expert
							culture = city_goblin
							skill = 3
							
							discount = yes
						}
					}
					1 = {
						define_advisor = {
							type = trader
							culture = city_goblin
							skill = 3
							
							discount = yes
						}
					}
				}
			}
			else_if = {
				limit = { monthly_income = 25 }
				random_list = {
					1 = {
						define_advisor = {
							type = fortification_expert
							culture = city_goblin
							skill = 2
							
							discount = yes
						}
					}
					1 = {
						define_advisor = {
							type = trader
							culture = city_goblin
							skill = 2
							
							discount = yes
						}
					}
				}
			}
			else = {
				random_list = {
					1 = {
						define_advisor = {
							type = fortification_expert
							culture = city_goblin
							skill = 1
							
							discount = yes
						}
					}
					1 = {
						define_advisor = {
							type = trader
							culture = city_goblin
							skill = 1
							
							discount = yes
						}
					}
				}
			}
		}
	}
	
	#a true exemplar
	option = {
		name = goblin_tolerance_events.1.b
		ai_chance = {
			factor = 50
		}
		medium_increase_of_goblin_tolerance_effect = yes	
	}
	
	#so what? 	
	option = {
		name = goblin_tolerance_events.1.c
		ai_chance = {
			factor = 50
			modifier = {
				factor = 0.5
				wants_to_increase_tolerance_goblin = yes
			}
		}
		small_decrease_of_goblin_tolerance_effect = yes
	}
}

#Goblin Cartel Blackmails
country_event = {
	id = goblin_tolerance_events.3
	title = goblin_tolerance_events.3.t
	desc = goblin_tolerance_events.3.d
	picture = CORRUPTION_eventPicture
	
	is_triggered_only = yes
		
	#Quiet the burghers
	option = {	
		name = goblin_tolerance_events.3.a
		ai_chance = {
			factor = 50
			modifier = {
				factor = 0.1
				wants_to_increase_tolerance_goblin = yes
			}
		}
		
		reduce_estate_burghers_loyalty_effect = yes
		add_years_of_income = -0.25
		medium_increase_of_goblin_tolerance_effect = yes
	}
	
	#They Did it To Themselves
	option = {
		name = goblin_tolerance_events.3.b
		ai_chance = {
			factor = 50
		}
		small_increase_of_goblin_tolerance_effect = yes	
	}
	
	#Goblins shouldn't be running "businesses" anyways
	option = {
		name = goblin_tolerance_events.3.c
		ai_chance = {
			factor = 50
			modifier = {
				factor = 0.5
				wants_to_increase_tolerance_goblin = yes
			}
		}
		largest_decrease_of_goblin_tolerance_effect = yes
		add_estate_burghers_loyalty_effect = yes
		add_years_of_income = 0.25
	}
}

#Artificer Patents
country_event = {
	id = goblin_tolerance_events.4
	title = goblin_tolerance_events.4.t
	desc = goblin_tolerance_events.4.d
	picture = ACCUSATION_eventPicture
	
	is_triggered_only = yes
		
	#the goblin did it first
	option = {	
		name = goblin_tolerance_events.4.a
		ai_chance = {
			factor = 50
			modifier = {
				factor = 0.1
				wants_to_increase_tolerance_goblin = yes
			}
		}
		
		reduce_estate_artificers_loyalty_effect = yes
		add_years_of_income = -0.5
		medium_increase_of_goblin_tolerance_effect = yes
	}
	
	#this is not our problem
	option = {
		name = goblin_tolerance_events.4.b
		ai_chance = {
			factor = 50
		}
		small_increase_of_goblin_tolerance_effect = yes	
		change_innovativeness = -2
	}
	
	#support main culture artificers
	option = {
		name = goblin_tolerance_events.4.c
		ai_chance = {
			factor = 50
			modifier = {
				factor = 0.5
				wants_to_increase_tolerance_goblin = yes
			}
		}
		largest_decrease_of_goblin_tolerance_effect = yes
		add_estate_artificers_loyalty_effect = yes
		change_innovativeness = -4
	}
}

#Sneaky goblins in government
country_event = {
	id = goblin_tolerance_events.5
	title = goblin_tolerance_events.5.t
	desc = goblin_tolerance_events.5.d
	picture = ASSASSINATION_eventPicture
	
	is_triggered_only = yes
		
	#initiviate should be commended
	option = {	
		name = goblin_tolerance_events.5.a
		ai_chance = {
			factor = 50
			modifier = {
				factor = 0.1
				wants_to_increase_tolerance_goblin = yes
			}
		}
		
		medium_increase_of_goblin_tolerance_effect = yes
		add_republican_tradition = -10
		add_legitimacy = -10
		add_devotion = -10
	}
	
	#they get the job done
	option = {
		name = goblin_tolerance_events.5.b
		ai_chance = {
			factor = 50
		}
		small_increase_of_goblin_tolerance_effect = yes	
		add_republican_tradition = -5
		add_legitimacy = -5
		add_devotion = -5
	}
	
	#put them down a peg
	option = {
		name = goblin_tolerance_events.5.c
		ai_chance = {
			factor = 50
			modifier = {
				factor = 0.5
				wants_to_increase_tolerance_goblin = yes
			}
		}
		largest_decrease_of_goblin_tolerance_effect = yes
		add_republican_tradition = 10
		add_legitimacy = 10
		add_devotion = 10
	}
}